risc-v-central-cpu/tb/risc_v_tb.vcd
$date
	Sun Mar 23 20:09:18 2025
$end
$version
	Icarus Verilog
$end
$timescale
	1ps
$end
$scope module risc_v_tb $end
$var wire 32 ! CPUOut [31:0] $end
$var reg 1 " CLK $end
$var reg 32 # CPUIn [31:0] $end
$var reg 1 $ Reset $end
$scope module dut $end
$var wire 32 % A [31:0] $end
$var wire 1 " CLK $end
$var wire 32 & CPUIn [31:0] $end
$var wire 32 ' JalrTarget [31:0] $end
$var wire 1 $ Reset $end
$var wire 32 ( SrcA [31:0] $end
$var wire 32 ) WD [31:0] $end
$var wire 32 * WD3 [31:0] $end
$var wire 1 + WE $end
$var wire 1 , WE3 $end
$var wire 1 - Zero $end
$var wire 32 . SrcB [31:0] $end
$var wire 2 / ResultSrc [1:0] $end
$var wire 32 0 Result [31:0] $end
$var wire 1 1 RegWrite $end
$var wire 32 2 RD2 [31:0] $end
$var wire 32 3 RD1 [31:0] $end
$var wire 32 4 RD [31:0] $end
$var wire 32 5 PCTarget [31:0] $end
$var wire 2 6 PCSrc [1:0] $end
$var wire 32 7 PCPlus4 [31:0] $end
$var wire 32 8 PC [31:0] $end
$var wire 1 9 Negative $end
$var wire 1 : MemWrite $end
$var wire 32 ; JalTarget [31:0] $end
$var wire 32 < Instr [31:0] $end
$var wire 3 = ImmSrc [2:0] $end
$var wire 32 > ImmExt [31:0] $end
$var wire 32 ? CPUOut [31:0] $end
$var wire 32 @ BranchTarget [31:0] $end
$var wire 1 A ALUSrc $end
$var wire 32 B ALUResult [31:0] $end
$var wire 5 C ALUControl [4:0] $end
$var wire 5 D A3 [4:0] $end
$var wire 5 E A2 [4:0] $end
$var wire 5 F A1 [4:0] $end
$scope module ALU_module $end
$var wire 32 G SrcA [31:0] $end
$var wire 32 H SrcB [31:0] $end
$var wire 1 - Zero $end
$var wire 32 I ShiftResult [31:0] $end
$var wire 32 J SLTResult [31:0] $end
$var wire 1 9 Negative $end
$var wire 32 K LogicResult [31:0] $end
$var wire 32 L ArithResult [31:0] $end
$var wire 2 M ALUOp [1:0] $end
$var wire 5 N ALUControl [4:0] $end
$var reg 32 O ALUResult [31:0] $end
$upscope $end
$scope module CU_module $end
$var wire 1 9 Negative $end
$var wire 1 - Zero $end
$var wire 7 P opcode [6:0] $end
$var wire 7 Q funct7 [6:0] $end
$var wire 3 R funct3 [2:0] $end
$var wire 32 S Instr [31:0] $end
$var reg 5 T ALUControl [4:0] $end
$var reg 1 A ALUSrc $end
$var reg 3 U ImmSrc [2:0] $end
$var reg 1 : MemWrite $end
$var reg 2 V PCSrc [1:0] $end
$var reg 1 1 RegWrite $end
$var reg 2 W ResultSrc [1:0] $end
$upscope $end
$scope module DM_module $end
$var wire 32 X A [31:0] $end
$var wire 1 " CLK $end
$var wire 32 Y CPUIn [31:0] $end
$var wire 32 Z WD [31:0] $end
$var wire 1 + WE $end
$var wire 1 [ RDsel $end
$var wire 32 \ RD [31:0] $end
$var reg 32 ] CPUOut [31:0] $end
$var reg 1 ^ WEM $end
$var reg 1 _ WEOut $end
$upscope $end
$scope module EXT_module $end
$var wire 3 ` ImmSrc [2:0] $end
$var wire 32 a Instr [31:0] $end
$var wire 32 b ImmExt [31:0] $end
$upscope $end
$scope module IM_module $end
$var wire 32 c Instr [31:0] $end
$var wire 32 d PC_divided_by_4 [31:0] $end
$var wire 32 e PC [31:0] $end
$upscope $end
$scope module PC_module $end
$var wire 32 f ALUResult [31:0] $end
$var wire 1 " CLK $end
$var wire 2 g PCSrc [1:0] $end
$var wire 32 h PCTarget [31:0] $end
$var wire 1 $ Reset $end
$var wire 32 i PCPlus4 [31:0] $end
$var reg 32 j PC [31:0] $end
$upscope $end
$scope module RF_module $end
$var wire 5 k A1 [4:0] $end
$var wire 5 l A2 [4:0] $end
$var wire 5 m A3 [4:0] $end
$var wire 1 " CLK $end
$var wire 32 n WD3 [31:0] $end
$var wire 1 , WE3 $end
$var wire 32 o RD2 [31:0] $end
$var wire 32 p RD1 [31:0] $end
$upscope $end
$upscope $end
$upscope $end
$enddefinitions $end
#0
$dumpvars
bx p
bx o
bx n
bx m
bx l
bx k
bx j
bx i
bx h
bx g
b0 f
bx e
bx d
bx c
bx b
bx a
bx `
0_
0^
bx ]
bx \
0[
bx Z
b0 Y
b0 X
bx W
bx V
bx U
bx T
bx S
bx R
bx Q
bx P
b0 O
bx N
bx M
bx L
bx K
b0x J
bx I
bx H
bx G
bx F
bx E
bx D
bx C
b0 B
xA
bx @
bx ?
bx >
bx =
bx <
bx ;
x:
09
bx 8
bx 7
bx 6
bx 5
bx 4
bx 3
bx 2
x1
bx 0
bx /
bx .
1-
x,
x+
bx *
bx )
bx (
b0 '
b0 &
b0 %
1$
b0 #
0"
bx !
$end
#10000
b0x000 K
b0 I
0-
b1000 %
b1000 X
b1000 '
b1000 B
b1000 O
b1000 f
b1000 *
b1000 n
b1000 0
b1000 L
b1 J
b10 M
b1000 .
b1000 H
b1000 ;
b1000 @
b1000 >
b1000 b
bz0z10 C
bz0z10 N
bz0z10 T
b0 6
b0 V
b0 g
b1 /
b1 W
0+
0:
1A
b0 =
b0 U
b0 `
1,
11
b0 (
b0 G
b0 3
b0 p
b0 Q
b0 R
b10011 P
b1000 D
b1000 m
b1000 E
b1000 l
b0 F
b0 k
b100 7
b100 i
b100000000000010000010011 <
b100000000000010000010011 S
b100000000000010000010011 a
b100000000000010000010011 c
b0 d
b0 8
b0 e
b0 j
1"
#20000
0"
0$
#30000
b1001 *
b1001 n
b1001 0
b0x00x K
b1001 %
b1001 X
b1001 '
b1001 B
b1001 O
b1001 f
b1001 L
b1001 .
b1001 H
b1001 >
b1001 b
b1001 D
b1001 m
b1001 E
b1001 l
b1000 7
b1000 i
b100100000000010010010011 <
b100100000000010010010011 S
b100100000000010010010011 a
b100100000000010010010011 c
b1 d
b1101 ;
b1101 @
b100 8
b100 e
b100 j
1"
#40000
0"
b11111111 #
b11111111 &
b11111111 Y
#50000
b0 *
b0 n
b0 0
b0 K
1-
b0 %
b0 X
b0 '
b0 B
b0 O
b0 f
b0 L
b0 J
b0 .
b0 H
b0 >
b0 b
b0 )
b0 Z
b0 2
b0 o
b10010 D
b10010 m
b0 E
b0 l
b1100 7
b1100 i
b100100010011 <
b100100010011 S
b100100010011 a
b100100010011 c
b10 d
b1000 ;
b1000 @
b1000 8
b1000 e
b1000 j
1"
#60000
0"
#70000
b10011 D
b10011 m
b10000 7
b10000 i
b100110010011 <
b100110010011 S
b100110010011 a
b100110010011 c
b11 d
b1100 ;
b1100 @
b1100 8
b1100 e
b1100 j
1"
#80000
0"
#90000
b1000 *
b1000 n
b1000 0
b0x000 K
0-
b1000 %
b1000 X
b1000 '
b1000 B
b1000 O
b1000 f
b1000 L
b1 J
b1000 .
b1000 H
b1000 >
b1000 b
b1000 )
b1000 Z
b1000 2
b1000 o
b110 D
b110 m
b1000 E
b1000 l
b10100 7
b10100 i
b100000000000001100010011 <
b100000000000001100010011 S
b100000000000001100010011 a
b100000000000001100010011 c
b100 d
b11000 ;
b11000 @
b10000 8
b10000 e
b10000 j
1"
#100000
0"
#110000
b1 *
b1 n
b1 0
b1 K
0-
b1 %
b1 X
b1 '
b1 B
b1 O
b1 f
b1 .
b1 H
b11 M
b10x0 L
b0x0xx0 I
b0 J
b1 >
b1 b
bz011 C
bz011 N
bz011 T
bx )
bx Z
bx 2
bx o
b1001 (
b1001 G
b1001 3
b1001 p
b111 R
b101 D
b101 m
b1 E
b1 l
b1001 F
b1001 k
b11000 7
b11000 i
b101001111001010010011 <
b101001111001010010011 S
b101001111001010010011 a
b101001111001010010011 c
b101 d
b10101 ;
b10101 @
b10100 8
b10100 e
b10100 j
1"
#120000
0"
#130000
0[
b0x K
b0 6
b0 V
b0 g
0-
b1 %
b1 X
b1 '
b1 B
b1 O
b1 f
b10 M
bx *
bx n
bx 0
b0 .
b0 H
b1 L
b1 I
b0 J
b1000 >
b1000 b
bz1z10 C
bz1z10 N
bz1z10 T
bz /
bz W
0A
b10 =
b10 U
b10 `
0,
01
b0 )
b0 Z
b0 2
b0 o
b1 (
b1 G
b1 3
b1 p
b0 R
b1100011 P
b1000 D
b1000 m
b0 E
b0 l
b101 F
b101 k
b11100 7
b11100 i
b101000010001100011 <
b101000010001100011 S
b101000010001100011 a
b101000010001100011 c
b110 d
b100000 ;
b100000 @
b11000 8
b11000 e
b11000 j
1"
#140000
0"
#150000
b1000 *
b1000 n
b1000 0
b1 J
b0x000 K
0-
b1000 %
b1000 X
b1000 '
b1000 B
b1000 O
b1000 f
b0x000x00x00000000000xx0x0 >
b0x000x00x00000000000xx0x0 b
b1000 .
b1000 H
b1000 L
b0 I
bz0z10 C
bz0z10 N
bz0z10 T
b1 /
b1 W
bz =
bz U
bz `
1,
11
b1000 )
b1000 Z
b1000 2
b1000 o
b0 (
b0 G
b0 3
b0 p
b110011 P
b10010 D
b10010 m
b1000 E
b1000 l
b10010 F
b10010 k
b100000 7
b100000 i
b100010010000100100110011 <
b100010010000100100110011 S
b100010010000100100110011 a
b100010010000100100110011 c
b111 d
bx ;
bx @
b11100 8
b11100 e
b11100 j
1"
#160000
0"
#170000
b10000 *
b10000 n
b10000 0
b0x00x K
0-
b10000 %
b10000 X
b10000 '
b10000 B
b10000 O
b10000 f
b0 M
b1 .
b1 H
b0xxx1 L
b10000 I
b0 J
b100001 ;
b100001 @
b1 >
b1 b
b0zz00 C
b0zz00 N
b0zz00 T
1A
b0 =
b0 U
b0 `
bx )
bx Z
bx 2
bx o
b1000 (
b1000 G
b1000 3
b1000 p
b1 R
b10011 P
b1000 D
b1000 m
b1 E
b1 l
b1000 F
b1000 k
b100100 7
b100100 i
b101000001010000010011 <
b101000001010000010011 S
b101000001010000010011 a
b101000001010000010011 c
b1000 d
b100000 8
b100000 e
b100000 j
1"
#180000
0"
#190000
b100 *
b100 n
b100 0
b0x001 K
b100 %
b100 X
b100 '
b100 B
b100 O
b100 f
b10x0 L
b100 I
b1zz00 C
b1zz00 N
b1zz00 T
b1001 (
b1001 G
b1001 3
b1001 p
b101 R
b1001 D
b1001 m
b1001 F
b1001 k
b101000 7
b101000 i
b101001101010010010011 <
b101001101010010010011 S
b101001101010010010011 a
b101001101010010010011 c
b1001 d
b100101 ;
b100101 @
b100100 8
b100100 e
b100100 j
1"
#200000
0"
#210000
b1 *
b1 n
b1 0
b0x K
b1 %
b1 X
b1 '
b1 B
b1 O
b1 f
b10 M
b1 L
b0 I
b1 J
bz0z10 C
bz0z10 N
bz0z10 T
b0 (
b0 G
b0 3
b0 p
b0 R
b10011 D
b10011 m
b10011 F
b10011 k
b101100 7
b101100 i
b110011000100110010011 <
b110011000100110010011 S
b110011000100110010011 a
b110011000100110010011 c
b1010 d
b101001 ;
b101001 @
b101000 8
b101000 e
b101000 j
1"
#220000
0"
#230000
b0x00000000 I
b1 (
b1 G
b1 3
b1 p
b0x00x K
b11111111111111111111111111111001 %
b11111111111111111111111111111001 X
b11111111111111111111111111111001 '
b11111111111111111111111111111001 B
b11111111111111111111111111111001 O
b11111111111111111111111111111001 f
b11111111111111111111111111111001 L
b110100 5
b110100 h
bx *
bx n
bx 0
b1000 .
b1000 H
b1000 >
b1000 b
b1 6
b1 V
b1 g
bz1z10 C
bz1z10 N
bz1z10 T
bz /
bz W
0A
b10 =
b10 U
b10 `
0,
01
b1000 )
b1000 Z
b1000 2
b1000 o
b101 R
b1100011 P
b1000 D
b1000 m
b110 E
b110 l
b110000 7
b110000 i
b11010011101010001100011 <
b11010011101010001100011 S
b11010011101010001100011 a
b11010011101010001100011 c
b1011 d
b110100 ;
b110100 @
b101100 8
b101100 e
b101100 j
1"
#240000
0"
#250000
b10000000000000000000000000000000 >
b10000000000000000000000000000000 b
09
b0 J
b0 K
1-
b0 %
b0 X
b0 '
b0 B
b0 O
b0 f
b10000000000000000000000000000000 *
b10000000000000000000000000000000 n
b10000000000000000000000000000000 0
bz M
b0 .
b0 H
b0 L
b0 I
b0 6
b0 V
b0 g
b0 /
b0 W
bz C
bz N
bz T
b11 =
b11 U
b11 `
1,
11
b0 )
b0 Z
b0 2
b0 o
b0 (
b0 G
b0 3
b0 p
b1000000 Q
b0 R
b110111 P
b11111 D
b11111 m
b0 E
b0 l
b0 F
b0 k
bx 5
bx h
b111000 7
b111000 i
b10000000000000000000111110110111 <
b10000000000000000000111110110111 S
b10000000000000000000111110110111 a
b10000000000000000000111110110111 c
b1101 d
b10000000000000000000000000110100 ;
b10000000000000000000000000110100 @
b110100 8
b110100 e
b110100 j
1"
#260000
0"
#270000
b11111111 4
b11111111 \
1[
b1xxxxxxxxxxxxxxxxxxxxxxxxxxxxx00 K
0-
b1111111111111111111111111111100 %
b1111111111111111111111111111100 X
b1111111111111111111111111111100 '
b1111111111111111111111111111100 B
b1111111111111111111111111111100 O
b1111111111111111111111111111100 f
b10 M
b1111111111111111111111111111100 *
b1111111111111111111111111111100 n
b1111111111111111111111111111100 0
b11111111111111111111111111111100 >
b11111111111111111111111111111100 b
b11111111111111111111111111111100 .
b11111111111111111111111111111100 H
b1111111111111111111111111111100 L
b0x000 I
b1 J
bz0z10 C
bz0z10 N
bz0z10 T
b1 /
b1 W
1A
b0 =
b0 U
b0 `
bx )
bx Z
bx 2
bx o
b10000000000000000000000000000000 (
b10000000000000000000000000000000 G
b10000000000000000000000000000000 3
b10000000000000000000000000000000 p
b1111111 Q
b10011 P
b11100 E
b11100 l
b11111 F
b11111 k
b111100 7
b111100 i
b11111111110011111000111110010011 <
b11111111110011111000111110010011 S
b11111111110011111000111110010011 a
b11111111110011111000111110010011 c
b1110 d
b110100 ;
b110100 @
b111000 8
b111000 e
b111000 j
1"
#280000
0"
#290000
b0 J
b1111111111111111111111111111100 (
b1111111111111111111111111111100 G
b1111111111111111111111111111100 3
b1111111111111111111111111111100 p
b11111111 4
b11111111 \
b1111111111111111111111111111100 *
b1111111111111111111111111111100 n
b1111111111111111111111111111100 0
1[
0^
b0xxxxxxxxxxxxxxxxxxxxxxxxxxxxx00 K
b1111111111111111111111111111100 %
b1111111111111111111111111111100 X
b1111111111111111111111111111100 '
b1111111111111111111111111111100 B
b1111111111111111111111111111100 O
b1111111111111111111111111111100 f
b1111111111111111111111111111100 I
b1111111111111111111111111111100 L
b0 .
b0 H
1_
b0 >
b0 b
1+
1:
b1 =
b1 U
b1 `
0,
01
b1000 )
b1000 Z
b1000 2
b1000 o
b0 Q
b10 R
b100011 P
b0 D
b0 m
b10010 E
b10010 l
b1000000 7
b1000000 i
b1001011111010000000100011 <
b1001011111010000000100011 S
b1001011111010000000100011 a
b1001011111010000000100011 c
b1111 d
b111100 ;
b111100 @
b111100 8
b111100 e
b111100 j
1"
#300000
0"
#310000
b1000 !
b1000 ?
b1000 ]
bx 4
bx \
bx *
bx n
bx 0
x[
0_
bx .
bx H
bx K
x-
bx %
bx X
bx '
bx B
bx O
bx f
bx >
bx b
bx L
bx I
b0x J
bx )
bx Z
bx 2
bx o
bx (
bx G
bx 3
bx p
bx Q
bx R
bx P
bx D
bx m
bx E
bx l
bx F
bx k
b1000100 7
b1000100 i
bx <
bx S
bx a
bx c
b10000 d
bx ;
bx @
b1000000 8
b1000000 e
b1000000 j
1"
#320000
0"
#330000
b1001000 7
b1001000 i
b10001 d
b1000100 8
b1000100 e
b1000100 j
1"
#340000
0"
#350000
b1001100 7
b1001100 i
b10010 d
b1001000 8
b1001000 e
b1001000 j
1"
#360000
0"
#370000
b1010000 7
b1010000 i
b10011 d
b1001100 8
b1001100 e
b1001100 j
1"
#380000
0"
#390000
b1010100 7
b1010100 i
b10100 d
b1010000 8
b1010000 e
b1010000 j
1"
#400000
0"
#410000
b1011000 7
b1011000 i
b10101 d
b1010100 8
b1010100 e
b1010100 j
1"
#420000
0"
#430000
b1011100 7
b1011100 i
b10110 d
b1011000 8
b1011000 e
b1011000 j
1"
#440000
0"
#450000
b1100000 7
b1100000 i
b10111 d
b1011100 8
b1011100 e
b1011100 j
1"
#460000
0"
#470000
b1100100 7
b1100100 i
b11000 d
b1100000 8
b1100000 e
b1100000 j
1"
#480000
0"
#490000
b1101000 7
b1101000 i
b11001 d
b1100100 8
b1100100 e
b1100100 j
1"
#500000
0"
#510000
b1101100 7
b1101100 i
b11010 d
b1101000 8
b1101000 e
b1101000 j
1"
#520000
0"
#530000
b1110000 7
b1110000 i
b11011 d
b1101100 8
b1101100 e
b1101100 j
1"
#540000
0"
#550000
b1110100 7
b1110100 i
b11100 d
b1110000 8
b1110000 e
b1110000 j
1"
#560000
0"
#570000
b1111000 7
b1111000 i
b11101 d
b1110100 8
b1110100 e
b1110100 j
1"
#580000
0"
#590000
b1111100 7
b1111100 i
b11110 d
b1111000 8
b1111000 e
b1111000 j
1"
#600000
0"
#610000
b10000000 7
b10000000 i
b11111 d
b1111100 8
b1111100 e
b1111100 j
1"
#620000
0"
#630000
b10000100 7
b10000100 i
b100000 d
b10000000 8
b10000000 e
b10000000 j
1"
#640000
0"
#650000
b10001000 7
b10001000 i
b100001 d
b10000100 8
b10000100 e
b10000100 j
1"
#660000
0"
#670000
b10001100 7
b10001100 i
b100010 d
b10001000 8
b10001000 e
b10001000 j
1"
#680000
0"
#690000
b10010000 7
b10010000 i
b100011 d
b10001100 8
b10001100 e
b10001100 j
1"
#700000
0"
#710000
b10010100 7
b10010100 i
b100100 d
b10010000 8
b10010000 e
b10010000 j
1"
#720000
0"
#730000
b10011000 7
b10011000 i
b100101 d
b10010100 8
b10010100 e
b10010100 j
1"
#740000
0"
#750000
b10011100 7
b10011100 i
b100110 d
b10011000 8
b10011000 e
b10011000 j
1"
#760000
0"
#770000
b10100000 7
b10100000 i
b100111 d
b10011100 8
b10011100 e
b10011100 j
1"
#780000
0"
#790000
b10100100 7
b10100100 i
b101000 d
b10100000 8
b10100000 e
b10100000 j
1"
#800000
0"
#810000
b10101000 7
b10101000 i
b101001 d
b10100100 8
b10100100 e
b10100100 j
1"
#820000
0"
#830000
b10101100 7
b10101100 i
b101010 d
b10101000 8
b10101000 e
b10101000 j
1"
#840000
0"
#850000
b10110000 7
b10110000 i
b101011 d
b10101100 8
b10101100 e
b10101100 j
1"
#860000
0"
#870000
b10110100 7
b10110100 i
b101100 d
b10110000 8
b10110000 e
b10110000 j
1"
#880000
0"
#890000
b10111000 7
b10111000 i
b101101 d
b10110100 8
b10110100 e
b10110100 j
1"
#900000
0"
#910000
b10111100 7
b10111100 i
b101110 d
b10111000 8
b10111000 e
b10111000 j
1"
#920000
0"
#930000
b11000000 7
b11000000 i
b101111 d
b10111100 8
b10111100 e
b10111100 j
1"
#940000
0"
#950000
b11000100 7
b11000100 i
b110000 d
b11000000 8
b11000000 e
b11000000 j
1"
#960000
0"
#970000
b11001000 7
b11001000 i
b110001 d
b11000100 8
b11000100 e
b11000100 j
1"
#980000
0"
#990000
b11001100 7
b11001100 i
b110010 d
b11001000 8
b11001000 e
b11001000 j
1"
#1000000
0"
#1010000
b11010000 7
b11010000 i
b110011 d
b11001100 8
b11001100 e
b11001100 j
1"
#1020000
0"
#1030000
b11010100 7
b11010100 i
b110100 d
b11010000 8
b11010000 e
b11010000 j
1"
#1040000
0"
#1050000
b11011000 7
b11011000 i
b110101 d
b11010100 8
b11010100 e
b11010100 j
1"
#1060000
0"
#1070000
b11011100 7
b11011100 i
b110110 d
b11011000 8
b11011000 e
b11011000 j
1"
#1080000
0"
#1090000
b11100000 7
b11100000 i
b110111 d
b11011100 8
b11011100 e
b11011100 j
1"
#1100000
0"
#1110000
b11100100 7
b11100100 i
b111000 d
b11100000 8
b11100000 e
b11100000 j
1"
#1120000
0"
#1130000
b11101000 7
b11101000 i
b111001 d
b11100100 8
b11100100 e
b11100100 j
1"
#1140000
0"
#1150000
b11101100 7
b11101100 i
b111010 d
b11101000 8
b11101000 e
b11101000 j
1"
#1160000
0"
#1170000
b11110000 7
b11110000 i
b111011 d
b11101100 8
b11101100 e
b11101100 j
1"
#1180000
0"
#1190000
b11110100 7
b11110100 i
b111100 d
b11110000 8
b11110000 e
b11110000 j
1"
#1200000
0"
#1210000
b11111000 7
b11111000 i
b111101 d
b11110100 8
b11110100 e
b11110100 j
1"
#1220000
0"
#1230000
b11111100 7
b11111100 i
b111110 d
b11111000 8
b11111000 e
b11111000 j
1"
#1240000
0"
#1250000
b100000000 7
b100000000 i
b111111 d
b11111100 8
b11111100 e
b11111100 j
1"
#1260000
0"
#1270000
b100000100 7
b100000100 i
b1000000 d
b100000000 8
b100000000 e
b100000000 j
1"
#1280000
0"
#1290000
b100001000 7
b100001000 i
b1000001 d
b100000100 8
b100000100 e
b100000100 j
1"
#1300000
0"
#1310000
b100001100 7
b100001100 i
b1000010 d
b100001000 8
b100001000 e
b100001000 j
1"
#1320000
0"
#1330000
b100010000 7
b100010000 i
b1000011 d
b100001100 8
b100001100 e
b100001100 j
1"
#1340000
0"
#1350000
b100010100 7
b100010100 i
b1000100 d
b100010000 8
b100010000 e
b100010000 j
1"
#1360000
0"
#1370000
b100011000 7
b100011000 i
b1000101 d
b100010100 8
b100010100 e
b100010100 j
1"
#1380000
0"
#1390000
b100011100 7
b100011100 i
b1000110 d
b100011000 8
b100011000 e
b100011000 j
1"
#1400000
0"
#1410000
b100100000 7
b100100000 i
b1000111 d
b100011100 8
b100011100 e
b100011100 j
1"
#1420000
0"
#1430000
b100100100 7
b100100100 i
b1001000 d
b100100000 8
b100100000 e
b100100000 j
1"
#1440000
0"
#1450000
b100101000 7
b100101000 i
b1001001 d
b100100100 8
b100100100 e
b100100100 j
1"
#1460000
0"
#1470000
b100101100 7
b100101100 i
b1001010 d
b100101000 8
b100101000 e
b100101000 j
1"
#1480000
0"
#1490000
b100110000 7
b100110000 i
b1001011 d
b100101100 8
b100101100 e
b100101100 j
1"
#1500000
0"
#1510000
b100110100 7
b100110100 i
b1001100 d
b100110000 8
b100110000 e
b100110000 j
1"
#1520000
0"
#1530000
b100111000 7
b100111000 i
b1001101 d
b100110100 8
b100110100 e
b100110100 j
1"
